{
   "data": {
     "id": "MaAEp",
     "name": "The Rolling Stones",
     "description": "The Rolling Stones are an English rock band formed in London in 1962 ...",
     "year": "1962",
     "genre": "ROCK",
     "country": "England"
   }	
}